[
  {
    "vsCodeId": "4ops.terraform",
    "ideaName": "Terraform and HCL",
    "ideaId": "org.intellij.plugins.hcl"
  },
  {
    "vsCodeId": "adpyke.vscode-sql-formatter",
    "ideaName": "SQL Formatter",
    "builtIn": true
  },
  {
    "vsCodeId": "cweijan.vscode-mysql-client2",
    "ideaName": "Database Tools and SQL",
    "ideaId": "com.intellij.database"
  },
  {
    "vsCodeId": "donjayamanne.githistory",
    "ideaName": "Git History",
    "builtIn": true
  },
  {
    "vsCodeId": "eamodio.gitlens",
    "ideaName": "GitLens — Git supercharged",
    "builtIn": true
  },
  {
    "vsCodeId": "ecmel.vscode-html-css",
    "ideaName": "HTML CSS Support",
    "builtIn": true
  },
  {
    "vsCodeId": "formulahendry.vscode-mysql",
    "ideaName": "Database Tools and SQL",
    "ideaId": "com.intellij.database"
  },
  {
    "vsCodeId": "GraphQL.vscode-graphql",
    "ideaName": "GraphQL",
    "ideaId": "com.intellij.lang.jsgraphql"
  },
  {
    "vsCodeId": "mongodb.mongodb-vscode",
    "ideaName": "Database Tools and SQL",
    "ideaId": "com.intellij.database"
  },
  {
    "vsCodeId": "ms-azuretools.vscode-docker",
    "ideaName": "Docker",
    "ideaId": "Docker"
  },
  {
    "vsCodeId": "ms-vscode-remote.remote-ssh",
    "ideaName": "Remote - SSH",
    "builtIn": true
  },
  {
    "vsCodeId": "MS-vsliveshare.vsliveshare",
    "ideaName": "Code With Me",
    "ideaId": "com.jetbrains.codeWithMe"
  },
  {
    "vsCodeId": "mtxr.sqltools",
    "ideaName": "Database Support",
    "builtIn": true
  },
  {
    "vsCodeId": "mtxr.sqltools-driver-mysql",
    "ideaName": "SQLTools MySQL/MariaDB/TiDB",
    "builtIn": true
  },
  {
    "vsCodeId": "ritwickdey.LiveServer",
    "ideaName": "Live Server",
    "builtIn": true
  }
]
