[
  {
    "vsCodeId": "4ops.terraform",
    "ideaName": "Terraform and HCL",
    "ideaId": "org.intellij.plugins.hcl"
  },
  {
    "vsCodeId": "abusaidm.html-snippets",
    "ideaName": "HTML Snippets",
    "builtIn": true
  },
  {
    "vsCodeId": "adpyke.vscode-sql-formatter",
    "ideaName": "SQL Formatter",
    "builtIn": true
  },
  {
    "vsCodeId": "ajhyndman.jslint",
    "ideaName": "JSLint",
    "ideaId": "com.jetbrains.plugins.jslint"
  },
  {
    "vsCodeId": "alexcvzz.vscode-sqlite",
    "ideaName": "SQLite",
    "builtIn": true
  },
  {
    "vsCodeId": "alexkrechik.cucumberautocomplete",
    "ideaName": "Gherkin",
    "ideaId": "gherkin"
  },
  {
    "vsCodeId": "andrejunges.Handlebars",
    "ideaName": "Handlebars/Mustache",
    "ideaId": "com.dmarcotte.handlebars"
  },
  {
    "vsCodeId": "Angular.ng-template",
    "ideaName": "Angular",
    "ideaId": "AngularJS"
  },
  {
    "vsCodeId": "antfu.vite",
    "ideaName": "Vite",
    "ideaId": "intellij.vitejs"
  },
  {
    "vsCodeId": "asvetliakov.vscode-neovim",
    "ideaName": "IdeaVim",
    "ideaId": "IdeaVIM"
  },
  {
    "vsCodeId": "bajdzis.vscode-database",
    "ideaName": "vscode-database",
    "builtIn": true
  },
  {
    "vsCodeId": "bierner.markdown-mermaid",
    "ideaName": "Mermaid",
    "ideaId": "com.intellij.mermaid"
  },
  {
    "vsCodeId": "bradlc.vscode-tailwindcss",
    "ideaName": "Tailwind CSS",
    "ideaId": "com.intellij.tailwindcss"
  },
  {
    "vsCodeId": "bungcip.better-toml",
    "ideaName": "Toml",
    "ideaId": "org.toml.lang"
  },
  {
    "vsCodeId": "christian-kohler.npm-intellisense",
    "ideaName": "npm Intellisense",
    "builtIn": true
  },
  {
    "vsCodeId": "ckolkman.vscode-postgres",
    "ideaName": "PostgreSQL",
    "builtIn": true
  },
  {
    "vsCodeId": "codezombiech.gitignore",
    "ideaName": "gitignore",
    "builtIn": true
  },
  {
    "vsCodeId": "csstools.postcss",
    "ideaName": "PostCSS",
    "ideaId": "org.intellij.plugins.postcss"
  },
  {
    "vsCodeId": "cweijan.vscode-mysql-client2",
    "ideaName": "Database Tools and SQL",
    "ideaId": "com.intellij.database"
  },
  {
    "vsCodeId": "cweijan.vscode-redis-client",
    "ideaName": "Redis",
    "builtIn": true
  },
  {
    "vsCodeId": "Dart-Code.dart-code",
    "ideaName": "Dart",
    "ideaId": "Dart"
  },
  {
    "vsCodeId": "dawhite.mustache",
    "ideaName": "Handlebars/Mustache",
    "ideaId": "com.dmarcotte.handlebars"
  },
  {
    "vsCodeId": "dbaeumer.vscode-eslint",
    "ideaName": "ESLint",
    "builtIn": true
  },
  {
    "vsCodeId": "denoland.vscode-deno",
    "ideaName": "Deno",
    "ideaId": "deno"
  },
  {
    "vsCodeId": "DigitalBrainstem.javascript-ejs-support",
    "ideaName": "EJS",
    "ideaId": "com.jetbrains.lang.ejs"
  },
  {
    "vsCodeId": "donjayamanne.githistory",
    "ideaName": "Git History",
    "builtIn": true
  },
  {
    "vsCodeId": "donjayamanne.python-environment-manager",
    "ideaName": "Python Community Edition",
    "ideaId": "PythonCore"
  },
  {
    "vsCodeId": "DotJoshJohnson.xml",
    "ideaName": "XML Tools",
    "builtIn": true
  },
  {
    "vsCodeId": "dtsvet.vscode-wasm",
    "ideaName": "WebAssembly",
    "ideaId": "com.jetbrains.webstorm.web-assembly-plugin"
  },
  {
    "vsCodeId": "eamodio.gitlens",
    "ideaName": "GitLens — Git supercharged",
    "builtIn": true
  },
  {
    "vsCodeId": "ecmel.vscode-html-css",
    "ideaName": "HTML CSS Support",
    "builtIn": true
  },
  {
    "vsCodeId": "EditorConfig.EditorConfig",
    "ideaName": "EditorConfig",
    "ideaId": "org.editorconfig.editorconfigjetbrains"
  },
  {
    "vsCodeId": "eg2.vscode-npm-script",
    "ideaName": "npm",
    "builtIn": true
  },
  {
    "vsCodeId": "esbenp.prettier-vscode",
    "ideaName": "Prettier",
    "ideaId": "intellij.prettierJS"
  },
  {
    "vsCodeId": "formulahendry.auto-close-tag",
    "ideaName": "Auto Close Tag",
    "builtIn": true
  },
  {
    "vsCodeId": "formulahendry.auto-rename-tag",
    "ideaName": "Auto Rename Tag",
    "builtIn": true
  },
  {
    "vsCodeId": "formulahendry.code-runner",
    "ideaName": "Code Runner",
    "builtIn": true
  },
  {
    "vsCodeId": "formulahendry.vscode-mysql",
    "ideaName": "Database Tools and SQL",
    "ideaId": "com.intellij.database"
  },
  {
    "vsCodeId": "foxundermoon.next-js",
    "ideaName": "Next.js",
    "ideaId": "intellij.nextjs"
  },
  {
    "vsCodeId": "GitHub.vscode-pull-request-github",
    "ideaName": "GitHub Pull Requests and Issues",
    "builtIn": true
  },
  {
    "vsCodeId": "GitLab.gitlab-workflow",
    "ideaName": "GitLab Workflow",
    "builtIn": true
  },
  {
    "vsCodeId": "golang.Go",
    "ideaName": "Go",
    "ideaId": "org.jetbrains.plugins.go"
  },
  {
    "vsCodeId": "GraphQL.vscode-graphql",
    "ideaName": "GraphQL",
    "ideaId": "com.intellij.lang.jsgraphql"
  },
  {
    "vsCodeId": "GraphQL.vscode-graphql-syntax",
    "ideaName": "GraphQL",
    "ideaId": "com.intellij.lang.jsgraphql"
  },
  {
    "vsCodeId": "HashiCorp.terraform",
    "ideaName": "Terraform and HCL",
    "ideaId": "org.intellij.plugins.hcl"
  },
  {
    "vsCodeId": "hollowtree.vue-snippets",
    "ideaName": "Vue.js",
    "ideaId": "org.jetbrains.plugins.vue"
  },
  {
    "vsCodeId": "ipedrazas.kubernetes-snippets",
    "ideaName": "Kubernetes",
    "ideaId": "com.intellij.kubernetes"
  },
  {
    "vsCodeId": "jcbuisson.vue",
    "ideaName": "Vue.js",
    "ideaId": "org.jetbrains.plugins.vue"
  },
  {
    "vsCodeId": "jeppeandersen.vscode-kafka",
    "ideaName": "Kafka",
    "ideaId": "com.intellij.bigdatatools.kafka"
  },
  {
    "vsCodeId": "johnpapa.Angular2",
    "ideaName": "Angular",
    "ideaId": "AngularJS"
  },
  {
    "vsCodeId": "kumar-harsh.graphql-for-vscode",
    "ideaName": "GraphQL",
    "ideaId": "com.intellij.lang.jsgraphql"
  },
  {
    "vsCodeId": "liximomo.sftp",
    "ideaName": "FTP/SFTP/WebDAV Connectivity",
    "ideaId": "com.jetbrains.plugins.webDeployment"
  },
  {
    "vsCodeId": "mhutchie.git-graph",
    "ideaName": "Git Graph",
    "builtIn": true
  },
  {
    "vsCodeId": "mongodb.mongodb-vscode",
    "ideaName": "Database Tools and SQL",
    "ideaId": "com.intellij.database"
  },
  {
    "vsCodeId": "ms-azuretools.vscode-docker",
    "ideaName": "Docker",
    "ideaId": "Docker"
  },
  {
    "vsCodeId": "MS-CEINTL.vscode-language-pack-ko",
    "ideaName": "Korean Language Pack / 한국어 언어 팩",
    "ideaId": "com.intellij.ko"
  },
  {
    "vsCodeId": "MS-CEINTL.vscode-language-pack-zh-hans",
    "ideaName": "Chinese (Simplified) Language Pack / 中文语言包",
    "ideaId": "com.intellij.zh"
  },
  {
    "vsCodeId": "ms-kubernetes-tools.vscode-kubernetes-tools",
    "ideaName": "Kubernetes",
    "ideaId": "com.intellij.kubernetes"
  },
  {
    "vsCodeId": "ms-mssql.data-workspace-vscode",
    "ideaName": "Data Workspace",
    "builtIn": true
  },
  {
    "vsCodeId": "ms-mssql.mssql",
    "ideaName": "Database Tools and SQL",
    "ideaId": "com.intellij.database"
  },
  {
    "vsCodeId": "ms-ossdata.vscode-postgresql",
    "ideaName": "PostgreSQL",
    "builtIn": true
  },
  {
    "vsCodeId": "ms-python.black-formatter",
    "ideaName": "Python Community Edition",
    "ideaId": "PythonCore"
  },
  {
    "vsCodeId": "ms-python.python",
    "ideaName": "Python",
    "ideaId": "Pythonid"
  },
  {
    "vsCodeId": "ms-vscode-remote.remote-containers",
    "ideaName": "Dev Containers",
    "ideaId": "org.jetbrains.plugins.docker.gateway"
  },
  {
    "vsCodeId": "ms-vscode-remote.remote-ssh",
    "ideaName": "Remote - SSH",
    "builtIn": true
  },
  {
    "vsCodeId": "ms-vscode-remote.remote-ssh-edit",
    "ideaName": "Remote - SSH: Editing Configuration Files",
    "builtIn": true
  },
  {
    "vsCodeId": "ms-vscode-remote.remote-wsl",
    "ideaName": "WSL",
    "builtIn": true
  },
  {
    "vsCodeId": "ms-vscode-remote.vscode-remote-extensionpack",
    "ideaName": "Remote Development",
    "builtIn": true
  },
  {
    "vsCodeId": "ms-vscode.sublime-keybindings",
    "ideaName": "Sublime Text Keymap",
    "ideaId": "com.intellij.plugins.sublimetextkeymap"
  },
  {
    "vsCodeId": "ms-vscode.vscode-typescript-tslint-plugin",
    "ideaName": "TSLint",
    "ideaId": "tslint"
  },
  {
    "vsCodeId": "MS-vsliveshare.vsliveshare",
    "ideaName": "Code With Me",
    "ideaId": "com.jetbrains.codeWithMe"
  },
  {
    "vsCodeId": "msjsdiag.vscode-react-native",
    "ideaName": "JavaScript Debugger",
    "ideaId": "JavaScriptDebugger"
  },
  {
    "vsCodeId": "mtxr.sqltools",
    "ideaName": "SQLTools",
    "builtIn": true
  },
  {
    "vsCodeId": "mtxr.sqltools-driver-mysql",
    "ideaName": "SQLTools MySQL/MariaDB/TiDB",
    "builtIn": true
  },
  {
    "vsCodeId": "mtxr.sqltools-driver-pg",
    "ideaName": "SQLTools PostgreSQL/Cockroach Driver",
    "builtIn": true
  },
  {
    "vsCodeId": "mtxr.sqltools-driver-sqlite",
    "ideaName": "SQLTools SQLite",
    "builtIn": true
  },
  {
    "vsCodeId": "octref.vetur",
    "ideaName": "Vue.js",
    "ideaId": "org.jetbrains.plugins.vue"
  },
  {
    "vsCodeId": "Oracle.oracledevtools",
    "ideaName": "Oracle Developer Tools for VS Code (SQL and PLSQL)",
    "builtIn": true
  },
  {
    "vsCodeId": "Postman.postman-for-vscode",
    "ideaName": "Postman",
    "builtIn": true
  },
  {
    "vsCodeId": "pranaygp.vscode-css-peek",
    "ideaName": "CSS Peek",
    "builtIn": true
  },
  {
    "vsCodeId": "Prisma.prisma",
    "ideaName": "Prisma ORM",
    "ideaId": "org.intellij.prisma"
  },
  {
    "vsCodeId": "raagh.angular-karma-test-explorer",
    "ideaName": "Karma",
    "ideaId": "Karma"
  },
  {
    "vsCodeId": "redhat.vscode-xml",
    "ideaName": "XML",
    "builtIn": true
  },
  {
    "vsCodeId": "redhat.vscode-yaml",
    "ideaName": "YAML",
    "ideaId": "org.jetbrains.plugins.yaml"
  },
  {
    "vsCodeId": "ritwickdey.live-sass",
    "ideaName": "File Watchers",
    "ideaId": "com.intellij.plugins.watcher"
  },
  {
    "vsCodeId": "ritwickdey.LiveServer",
    "ideaName": "Live Server",
    "builtIn": true
  },
  {
    "vsCodeId": "sdras.vue-vscode-snippets",
    "ideaName": "Vue.js",
    "ideaId": "org.jetbrains.plugins.vue"
  },
  {
    "vsCodeId": "shd101wyy.markdown-preview-enhanced",
    "ideaName": "Markdown Preview Enhanced",
    "builtIn": true
  },
  {
    "vsCodeId": "svelte.svelte-vscode",
    "ideaName": "Svelte",
    "ideaId": "dev.blachut.svelte.lang"
  },
  {
    "vsCodeId": "Syler.sass-indented",
    "ideaName": "Sass",
    "ideaId": "org.jetbrains.plugins.sass"
  },
  {
    "vsCodeId": "sysoev.language-stylus",
    "ideaName": "Stylus",
    "ideaId": "org.jetbrains.plugins.stylus"
  },
  {
    "vsCodeId": "techer.open-in-browser",
    "ideaName": "Open in browser",
    "builtIn": true
  },
  {
    "vsCodeId": "tht13.python",
    "ideaName": "Python Community Edition",
    "ideaId": "PythonCore"
  },
  {
    "vsCodeId": "vscodevim.vim",
    "ideaName": "IdeaVim",
    "ideaId": "IdeaVIM"
  },
  {
    "vsCodeId": "vstirbu.vscode-mermaid-preview",
    "ideaName": "Mermaid",
    "ideaId": "com.intellij.mermaid"
  },
  {
    "vsCodeId": "Vue.volar",
    "ideaName": "Vue.js",
    "ideaId": "org.jetbrains.plugins.vue"
  },
  {
    "vsCodeId": "vuhrmeister.vscode-meteor",
    "ideaName": "Meteor",
    "ideaId": "com.jetbrains.plugins.meteor"
  },
  {
    "vsCodeId": "yzhang.markdown-all-in-one",
    "ideaName": "Markdown All in One",
    "builtIn": true
  },
  {
    "vsCodeId": "Zignd.html-css-class-completion",
    "ideaName": "CSS",
    "ideaId": "com.intellij.css"
  },
  {
    "vsCodeId": "zxh404.vscode-proto3",
    "ideaName": "Protocol Buffers",
    "ideaId": "idea.plugin.protoeditor"
  }
]
