[
  {
    "vsCodeId": "4ops.terraform",
    "ideaName": "Terraform and HCL",
    "ideaId": "org.intellij.plugins.hcl"
  },
  {
    "vsCodeId": "adpyke.vscode-sql-formatter",
    "ideaName": "SQL Formatter",
    "builtIn": true
  },
  {
    "vsCodeId": "bajdzis.vscode-database",
    "ideaName": "vscode-database",
    "builtIn": true
  },
  {
    "vsCodeId": "cweijan.vscode-mysql-client2",
    "ideaName": "Database Tools and SQL",
    "ideaId": "com.intellij.database"
  },
  {
    "vsCodeId": "dbaeumer.vscode-eslint",
    "ideaName": "ESLint",
    "builtIn": true
  },
  {
    "vsCodeId": "donjayamanne.githistory",
    "ideaName": "Git History",
    "builtIn": true
  },
  {
    "vsCodeId": "eamodio.gitlens",
    "ideaName": "GitLens — Git supercharged",
    "builtIn": true
  },
  {
    "vsCodeId": "ecmel.vscode-html-css",
    "ideaName": "HTML CSS Support",
    "builtIn": true
  },
  {
    "vsCodeId": "formulahendry.auto-rename-tag",
    "ideaName": "Auto Rename Tag",
    "builtIn": true
  },
  {
    "vsCodeId": "formulahendry.code-runner",
    "ideaName": "Code Runner",
    "builtIn": true
  },
  {
    "vsCodeId": "formulahendry.vscode-mysql",
    "ideaName": "Database Tools and SQL",
    "ideaId": "com.intellij.database"
  },
  {
    "vsCodeId": "GitHub.vscode-pull-request-github",
    "ideaName": "GitHub Pull Requests and Issues",
    "builtIn": true
  },
  {
    "vsCodeId": "GraphQL.vscode-graphql",
    "ideaName": "GraphQL",
    "ideaId": "com.intellij.lang.jsgraphql"
  },
  {
    "vsCodeId": "GraphQL.vscode-graphql-syntax",
    "ideaName": "GraphQL",
    "ideaId": "com.intellij.lang.jsgraphql"
  },
  {
    "vsCodeId": "HashiCorp.terraform",
    "ideaName": "Terraform and HCL",
    "ideaId": "org.intellij.plugins.hcl"
  },
  {
    "vsCodeId": "mongodb.mongodb-vscode",
    "ideaName": "Database Tools and SQL",
    "ideaId": "com.intellij.database"
  },
  {
    "vsCodeId": "mrmlnc.vscode-scss",
    "ideaName": "Sass",
    "ideaId": "org.jetbrains.plugins.sass"
  },
  {
    "vsCodeId": "ms-azuretools.vscode-docker",
    "ideaName": "Docker",
    "ideaId": "Docker"
  },
  {
    "vsCodeId": "ms-kubernetes-tools.vscode-kubernetes-tools",
    "ideaName": "Kubernetes",
    "ideaId": "com.intellij.kubernetes"
  },
  {
    "vsCodeId": "ms-python.python",
    "ideaName": "Python",
    "ideaId": "Pythonid"
  },
  {
    "vsCodeId": "ms-vscode-remote.remote-wsl",
    "ideaName": "WSL",
    "builtIn": true
  },
  {
    "vsCodeId": "MS-vsliveshare.vsliveshare",
    "ideaName": "Code With Me",
    "ideaId": "com.jetbrains.codeWithMe"
  },
  {
    "vsCodeId": "mtxr.sqltools-driver-mysql",
    "ideaName": "SQLTools MySQL/MariaDB/TiDB",
    "builtIn": true
  },
  {
    "vsCodeId": "pranaygp.vscode-css-peek",
    "ideaName": "CSS Peek",
    "builtIn": true
  },
  {
    "vsCodeId": "ritwickdey.LiveServer",
    "ideaName": "Live Server",
    "builtIn": true
  },
  {
    "vsCodeId": "rust-lang.rust-analyzer",
    "ideaName": "Rust Support",
    "builtIn": true
  },
  {
    "vsCodeId": "Zignd.html-css-class-completion",
    "ideaName": "CSS",
    "ideaId": "com.intellij.css"
  }
]
